model_name,model_version,keypoint_name,keypoint_x,keypoint_y
keypoint_detector,2,Right Ankle,88,167
keypoint_detector,2,Right Knee,95,132
keypoint_detector,2,Right Hip,99,98
keypoint_detector,2,Left Hip,118,98
keypoint_detector,2,Left Knee,114,132
keypoint_detector,2,Left Ankle,110,167
keypoint_detector,2,Torso,107,98
keypoint_detector,2,Neck,107,49
keypoint_detector,2,Lower Head,107,45
keypoint_detector,2,Upper Head,107,18
keypoint_detector,2,Right Wirst,49,68
keypoint_detector,2,Right Elbow,72,60
keypoint_detector,2,Right Shoulder,91,49
keypoint_detector,2,Left Shoulder,126,49
keypoint_detector,2,Left Elbow,145,64
keypoint_detector,2,Left Wirst,133,83
